util/sim_results_proc/esn/esn_top_tb_v5.vcd
$date
	Fri Jul 29 17:52:57 2016
$end
$version
	ModelSim Version 10.1d
$end
$timescale
	1ps
$end
$scope module esn_top_tb $end
$var reg 1 ! clk $end
$var reg 1 " rst_N $end
$var wire 1 # est [31] $end
$var wire 1 $ est [30] $end
$var wire 1 % est [29] $end
$var wire 1 & est [28] $end
$var wire 1 ' est [27] $end
$var wire 1 ( est [26] $end
$var wire 1 ) est [25] $end
$var wire 1 * est [24] $end
$var wire 1 + est [23] $end
$var wire 1 , est [22] $end
$var wire 1 - est [21] $end
$var wire 1 . est [20] $end
$var wire 1 / est [19] $end
$var wire 1 0 est [18] $end
$var wire 1 1 est [17] $end
$var wire 1 2 est [16] $end
$var wire 1 3 est [15] $end
$var wire 1 4 est [14] $end
$var wire 1 5 est [13] $end
$var wire 1 6 est [12] $end
$var wire 1 7 est [11] $end
$var wire 1 8 est [10] $end
$var wire 1 9 est [9] $end
$var wire 1 : est [8] $end
$var wire 1 ; est [7] $end
$var wire 1 < est [6] $end
$var wire 1 = est [5] $end
$var wire 1 > est [4] $end
$var wire 1 ? est [3] $end
$var wire 1 @ est [2] $end
$var wire 1 A est [1] $end
$var wire 1 B est [0] $end
$var wire 1 C W_out [255] $end
$var wire 1 D W_out [254] $end
$var wire 1 E W_out [253] $end
$var wire 1 F W_out [252] $end
$var wire 1 G W_out [251] $end
$var wire 1 H W_out [250] $end
$var wire 1 I W_out [249] $end
$var wire 1 J W_out [248] $end
$var wire 1 K W_out [247] $end
$var wire 1 L W_out [246] $end
$var wire 1 M W_out [245] $end
$var wire 1 N W_out [244] $end
$var wire 1 O W_out [243] $end
$var wire 1 P W_out [242] $end
$var wire 1 Q W_out [241] $end
$var wire 1 R W_out [240] $end
$var wire 1 S W_out [239] $end
$var wire 1 T W_out [238] $end
$var wire 1 U W_out [237] $end
$var wire 1 V W_out [236] $end
$var wire 1 W W_out [235] $end
$var wire 1 X W_out [234] $end
$var wire 1 Y W_out [233] $end
$var wire 1 Z W_out [232] $end
$var wire 1 [ W_out [231] $end
$var wire 1 \ W_out [230] $end
$var wire 1 ] W_out [229] $end
$var wire 1 ^ W_out [228] $end
$var wire 1 _ W_out [227] $end
$var wire 1 ` W_out [226] $end
$var wire 1 a W_out [225] $end
$var wire 1 b W_out [224] $end
$var wire 1 c W_out [223] $end
$var wire 1 d W_out [222] $end
$var wire 1 e W_out [221] $end
$var wire 1 f W_out [220] $end
$var wire 1 g W_out [219] $end
$var wire 1 h W_out [218] $end
$var wire 1 i W_out [217] $end
$var wire 1 j W_out [216] $end
$var wire 1 k W_out [215] $end
$var wire 1 l W_out [214] $end
$var wire 1 m W_out [213] $end
$var wire 1 n W_out [212] $end
$var wire 1 o W_out [211] $end
$var wire 1 p W_out [210] $end
$var wire 1 q W_out [209] $end
$var wire 1 r W_out [208] $end
$var wire 1 s W_out [207] $end
$var wire 1 t W_out [206] $end
$var wire 1 u W_out [205] $end
$var wire 1 v W_out [204] $end
$var wire 1 w W_out [203] $end
$var wire 1 x W_out [202] $end
$var wire 1 y W_out [201] $end
$var wire 1 z W_out [200] $end
$var wire 1 { W_out [199] $end
$var wire 1 | W_out [198] $end
$var wire 1 } W_out [197] $end
$var wire 1 ~ W_out [196] $end
$var wire 1 !! W_out [195] $end
$var wire 1 "! W_out [194] $end
$var wire 1 #! W_out [193] $end
$var wire 1 $! W_out [192] $end
$var wire 1 %! W_out [191] $end
$var wire 1 &! W_out [190] $end
$var wire 1 '! W_out [189] $end
$var wire 1 (! W_out [188] $end
$var wire 1 )! W_out [187] $end
$var wire 1 *! W_out [186] $end
$var wire 1 +! W_out [185] $end
$var wire 1 ,! W_out [184] $end
$var wire 1 -! W_out [183] $end
$var wire 1 .! W_out [182] $end
$var wire 1 /! W_out [181] $end
$var wire 1 0! W_out [180] $end
$var wire 1 1! W_out [179] $end
$var wire 1 2! W_out [178] $end
$var wire 1 3! W_out [177] $end
$var wire 1 4! W_out [176] $end
$var wire 1 5! W_out [175] $end
$var wire 1 6! W_out [174] $end
$var wire 1 7! W_out [173] $end
$var wire 1 8! W_out [172] $end
$var wire 1 9! W_out [171] $end
$var wire 1 :! W_out [170] $end
$var wire 1 ;! W_out [169] $end
$var wire 1 <! W_out [168] $end
$var wire 1 =! W_out [167] $end
$var wire 1 >! W_out [166] $end
$var wire 1 ?! W_out [165] $end
$var wire 1 @! W_out [164] $end
$var wire 1 A! W_out [163] $end
$var wire 1 B! W_out [162] $end
$var wire 1 C! W_out [161] $end
$var wire 1 D! W_out [160] $end
$var wire 1 E! W_out [159] $end
$var wire 1 F! W_out [158] $end
$var wire 1 G! W_out [157] $end
$var wire 1 H! W_out [156] $end
$var wire 1 I! W_out [155] $end
$var wire 1 J! W_out [154] $end
$var wire 1 K! W_out [153] $end
$var wire 1 L! W_out [152] $end
$var wire 1 M! W_out [151] $end
$var wire 1 N! W_out [150] $end
$var wire 1 O! W_out [149] $end
$var wire 1 P! W_out [148] $end
$var wire 1 Q! W_out [147] $end
$var wire 1 R! W_out [146] $end
$var wire 1 S! W_out [145] $end
$var wire 1 T! W_out [144] $end
$var wire 1 U! W_out [143] $end
$var wire 1 V! W_out [142] $end
$var wire 1 W! W_out [141] $end
$var wire 1 X! W_out [140] $end
$var wire 1 Y! W_out [139] $end
$var wire 1 Z! W_out [138] $end
$var wire 1 [! W_out [137] $end
$var wire 1 \! W_out [136] $end
$var wire 1 ]! W_out [135] $end
$var wire 1 ^! W_out [134] $end
$var wire 1 _! W_out [133] $end
$var wire 1 `! W_out [132] $end
$var wire 1 a! W_out [131] $end
$var wire 1 b! W_out [130] $end
$var wire 1 c! W_out [129] $end
$var wire 1 d! W_out [128] $end
$var wire 1 e! W_out [127] $end
$var wire 1 f! W_out [126] $end
$var wire 1 g! W_out [125] $end
$var wire 1 h! W_out [124] $end
$var wire 1 i! W_out [123] $end
$var wire 1 j! W_out [122] $end
$var wire 1 k! W_out [121] $end
$var wire 1 l! W_out [120] $end
$var wire 1 m! W_out [119] $end
$var wire 1 n! W_out [118] $end
$var wire 1 o! W_out [117] $end
$var wire 1 p! W_out [116] $end
$var wire 1 q! W_out [115] $end
$var wire 1 r! W_out [114] $end
$var wire 1 s! W_out [113] $end
$var wire 1 t! W_out [112] $end
$var wire 1 u! W_out [111] $end
$var wire 1 v! W_out [110] $end
$var wire 1 w! W_out [109] $end
$var wire 1 x! W_out [108] $end
$var wire 1 y! W_out [107] $end
$var wire 1 z! W_out [106] $end
$var wire 1 {! W_out [105] $end
$var wire 1 |! W_out [104] $end
$var wire 1 }! W_out [103] $end
$var wire 1 ~! W_out [102] $end
$var wire 1 !" W_out [101] $end
$var wire 1 "" W_out [100] $end
$var wire 1 #" W_out [99] $end
$var wire 1 $" W_out [98] $end
$var wire 1 %" W_out [97] $end
$var wire 1 &" W_out [96] $end
$var wire 1 '" W_out [95] $end
$var wire 1 (" W_out [94] $end
$var wire 1 )" W_out [93] $end
$var wire 1 *" W_out [92] $end
$var wire 1 +" W_out [91] $end
$var wire 1 ," W_out [90] $end
$var wire 1 -" W_out [89] $end
$var wire 1 ." W_out [88] $end
$var wire 1 /" W_out [87] $end
$var wire 1 0" W_out [86] $end
$var wire 1 1" W_out [85] $end
$var wire 1 2" W_out [84] $end
$var wire 1 3" W_out [83] $end
$var wire 1 4" W_out [82] $end
$var wire 1 5" W_out [81] $end
$var wire 1 6" W_out [80] $end
$var wire 1 7" W_out [79] $end
$var wire 1 8" W_out [78] $end
$var wire 1 9" W_out [77] $end
$var wire 1 :" W_out [76] $end
$var wire 1 ;" W_out [75] $end
$var wire 1 <" W_out [74] $end
$var wire 1 =" W_out [73] $end
$var wire 1 >" W_out [72] $end
$var wire 1 ?" W_out [71] $end
$var wire 1 @" W_out [70] $end
$var wire 1 A" W_out [69] $end
$var wire 1 B" W_out [68] $end
$var wire 1 C" W_out [67] $end
$var wire 1 D" W_out [66] $end
$var wire 1 E" W_out [65] $end
$var wire 1 F" W_out [64] $end
$var wire 1 G" W_out [63] $end
$var wire 1 H" W_out [62] $end
$var wire 1 I" W_out [61] $end
$var wire 1 J" W_out [60] $end
$var wire 1 K" W_out [59] $end
$var wire 1 L" W_out [58] $end
$var wire 1 M" W_out [57] $end
$var wire 1 N" W_out [56] $end
$var wire 1 O" W_out [55] $end
$var wire 1 P" W_out [54] $end
$var wire 1 Q" W_out [53] $end
$var wire 1 R" W_out [52] $end
$var wire 1 S" W_out [51] $end
$var wire 1 T" W_out [50] $end
$var wire 1 U" W_out [49] $end
$var wire 1 V" W_out [48] $end
$var wire 1 W" W_out [47] $end
$var wire 1 X" W_out [46] $end
$var wire 1 Y" W_out [45] $end
$var wire 1 Z" W_out [44] $end
$var wire 1 [" W_out [43] $end
$var wire 1 \" W_out [42] $end
$var wire 1 ]" W_out [41] $end
$var wire 1 ^" W_out [40] $end
$var wire 1 _" W_out [39] $end
$var wire 1 `" W_out [38] $end
$var wire 1 a" W_out [37] $end
$var wire 1 b" W_out [36] $end
$var wire 1 c" W_out [35] $end
$var wire 1 d" W_out [34] $end
$var wire 1 e" W_out [33] $end
$var wire 1 f" W_out [32] $end
$var wire 1 g" W_out [31] $end
$var wire 1 h" W_out [30] $end
$var wire 1 i" W_out [29] $end
$var wire 1 j" W_out [28] $end
$var wire 1 k" W_out [27] $end
$var wire 1 l" W_out [26] $end
$var wire 1 m" W_out [25] $end
$var wire 1 n" W_out [24] $end
$var wire 1 o" W_out [23] $end
$var wire 1 p" W_out [22] $end
$var wire 1 q" W_out [21] $end
$var wire 1 r" W_out [20] $end
$var wire 1 s" W_out [19] $end
$var wire 1 t" W_out [18] $end
$var wire 1 u" W_out [17] $end
$var wire 1 v" W_out [16] $end
$var wire 1 w" W_out [15] $end
$var wire 1 x" W_out [14] $end
$var wire 1 y" W_out [13] $end
$var wire 1 z" W_out [12] $end
$var wire 1 {" W_out [11] $end
$var wire 1 |" W_out [10] $end
$var wire 1 }" W_out [9] $end
$var wire 1 ~" W_out [8] $end
$var wire 1 !# W_out [7] $end
$var wire 1 "# W_out [6] $end
$var wire 1 ## W_out [5] $end
$var wire 1 $# W_out [4] $end
$var wire 1 %# W_out [3] $end
$var wire 1 &# W_out [2] $end
$var wire 1 '# W_out [1] $end
$var wire 1 (# W_out [0] $end
$scope begin INITS $end
$upscope $end
$scope begin CLOCK $end
$upscope $end
$upscope $end
$enddefinitions $end
#0
$dumpvars
0!
1"
xB
xA
x@
x?
x>
x=
x<
x;
x:
x9
x8
x7
x6
x5
x4
x3
x2
x1
x0
x/
x.
x-
x,
x+
x*
x)
x(
x'
x&
x%
x$
x#
x(#
x'#
x&#
x%#
x$#
x##
x"#
x!#
x~"
x}"
x|"
x{"
xz"
xy"
xx"
xw"
xv"
xu"
xt"
xs"
xr"
xq"
xp"
xo"
xn"
xm"
xl"
xk"
xj"
xi"
xh"
xg"
xf"
xe"
xd"
xc"
xb"
xa"
x`"
x_"
x^"
x]"
x\"
x["
xZ"
xY"
xX"
xW"
xV"
xU"
xT"
xS"
xR"
xQ"
xP"
xO"
xN"
xM"
xL"
xK"
xJ"
xI"
xH"
xG"
xF"
xE"
xD"
xC"
xB"
xA"
x@"
x?"
x>"
x="
x<"
x;"
x:"
x9"
x8"
x7"
x6"
x5"
x4"
x3"
x2"
x1"
x0"
x/"
x."
x-"
x,"
x+"
x*"
x)"
x("
x'"
x&"
x%"
x$"
x#"
x""
x!"
x~!
x}!
x|!
x{!
xz!
xy!
xx!
xw!
xv!
xu!
xt!
xs!
xr!
xq!
xp!
xo!
xn!
xm!
xl!
xk!
xj!
xi!
xh!
xg!
xf!
xe!
xd!
xc!
xb!
xa!
x`!
x_!
x^!
x]!
x\!
x[!
xZ!
xY!
xX!
xW!
xV!
xU!
xT!
xS!
xR!
xQ!
xP!
xO!
xN!
xM!
xL!
xK!
xJ!
xI!
xH!
xG!
xF!
xE!
xD!
xC!
xB!
xA!
x@!
x?!
x>!
x=!
x<!
x;!
x:!
x9!
x8!
x7!
x6!
x5!
x4!
x3!
x2!
x1!
x0!
x/!
x.!
x-!
x,!
x+!
x*!
x)!
x(!
x'!
x&!
x%!
x$!
x#!
x"!
x!!
x~
x}
x|
x{
xz
xy
xx
xw
xv
xu
xt
xs
xr
xq
xp
xo
xn
xm
xl
xk
xj
xi
xh
xg
xf
xe
xd
xc
xb
xa
x`
x_
x^
x]
x\
x[
xZ
xY
xX
xW
xV
xU
xT
xS
xR
xQ
xP
xO
xN
xM
xL
xK
xJ
xI
xH
xG
xF
xE
xD
xC
$end
#1000
0"
1!
0B
0A
0@
0?
0>
0=
0<
0;
0:
09
08
07
06
05
04
03
02
01
00
0/
0.
0-
0,
0+
0*
0)
0(
0'
0&
0%
0$
0#
0(#
0'#
0&#
0%#
0$#
0##
0"#
0!#
0~"
0}"
0|"
0{"
0z"
0y"
0x"
0w"
0v"
0u"
0t"
0s"
0r"
0q"
0p"
0o"
0n"
0m"
0l"
0k"
0j"
0i"
0h"
0g"
0f"
0e"
0d"
0c"
0b"
0a"
0`"
0_"
0^"
0]"
0\"
0["
0Z"
0Y"
0X"
0W"
0V"
0U"
0T"
0S"
0R"
0Q"
0P"
0O"
0N"
0M"
0L"
0K"
0J"
0I"
0H"
0G"
0F"
0E"
0D"
0C"
0B"
0A"
0@"
0?"
0>"
0="
0<"
0;"
0:"
09"
08"
07"
06"
05"
04"
03"
02"
01"
00"
0/"
0."
0-"
0,"
0+"
0*"
0)"
0("
0'"
0&"
0%"
0$"
0#"
0""
0!"
0~!
0}!
0|!
0{!
0z!
0y!
0x!
0w!
0v!
0u!
0t!
0s!
0r!
0q!
0p!
0o!
0n!
0m!
0l!
0k!
0j!
0i!
0h!
0g!
0f!
0e!
0d!
0c!
0b!
0a!
0`!
0_!
0^!
0]!
0\!
0[!
0Z!
0Y!
0X!
0W!
0V!
0U!
0T!
0S!
0R!
0Q!
0P!
0O!
0N!
0M!
0L!
0K!
0J!
0I!
0H!
0G!
0F!
0E!
0D!
0C!
0B!
0A!
0@!
0?!
0>!
0=!
0<!
0;!
0:!
09!
08!
07!
06!
05!
04!
03!
02!
01!
00!
0/!
0.!
0-!
0,!
0+!
0*!
0)!
0(!
0'!
0&!
0%!
0$!
0#!
0"!
0!!
0~
0}
0|
0{
0z
0y
0x
0w
0v
0u
0t
0s
0r
0q
0p
0o
0n
0m
0l
0k
0j
0i
0h
0g
0f
0e
0d
0c
0b
0a
0`
0_
0^
0]
0\
0[
0Z
0Y
0X
0W
0V
0U
0T
0S
0R
0Q
0P
0O
0N
0M
0L
0K
0J
0I
0H
0G
0F
0E
0D
0C
#2000
0!
#3000
1!
#4000
0!
#5000
1!
#6000
0!
#7000
1!
#8000
0!
#9000
1!
#10000
0!
#11000
1!
#12000
0!
#13000
1!
#14000
0!
#15000
1!
#16000
0!
#17000
1!
#18000
0!
#19000
1!
#20000
1"
0!
#21000
1!
#22000
0!
#23000
1!
#24000
0!
#25000
1!
#26000
0!
#27000
1!
#28000
0!
#29000
1!
#30000
0!
#31000
1!
#32000
0!
#33000
1!
#34000
0!
#35000
1!
#36000
0!
#37000
1!
#38000
0!
#39000
1!
#40000
0!
#41000
1!
#42000
0!
#43000
1!
#44000
0!
#45000
1!
1(#
1&#
1$#
1##
1e"
1d"
1c"
1`"
1_"
1^"
1]"
1\"
1["
1Z"
1Y"
1X"
1W"
1V"
1U"
1T"
1S"
1R"
1Q"
1P"
1O"
1N"
1M"
1L"
1K"
1J"
1I"
1H"
1G"
1E"
1D"
1C"
1B"
1@"
1&"
1%"
1""
1~!
1c!
1b!
1a!
1`!
1_!
1]!
1\!
1[!
1Z!
1Y!
1X!
1W!
1V!
1U!
1T!
1S!
1R!
1Q!
1P!
1O!
1N!
1M!
1L!
1K!
1J!
1I!
1H!
1G!
1F!
1E!
1D!
1B!
1>!
1#!
1}
1a
1`
1^
1]
1\
#46000
0!
#47000
1!
#48000
0!
#49000
1!
#50000
0!
#51000
1!
#52000
0!
#53000
1!
1@
1>
1=
1;
1'#
1%#
0$#
0##
1!#
1~"
1}"
0c"
0_"
0\"
0C"
1>"
1<"
0&"
0~!
1}!
1z!
0c!
0b!
1^!
0Z!
1C!
0B!
1?!
1=!
1<!
1;!
1~
1|
1{
1y
0`
0\
1[
1Z
1Y
1X
#54000
0!
#55000
1!
#56000
0!
#57000
1!
#58000
0!
#59000
1!
#60000
0!
#61000
1!
1B
1A
16
0(#
0&#
1##
1"#
0!#
0~"
1z"
0e"
0`"
0^"
0]"
1\"
0["
0Z"
1A"
0@"
0>"
1;"
1:"
1$"
1!"
1~!
1|!
1x!
1c!
0a!
0`!
0_!
0^!
0]!
0[!
0X!
1@!
0>!
0=!
18!
1$!
0#!
1"!
0y
1v
1b
0^
0]
0[
0X
1W
1U
#62000
0!
#63000
1!
#64000
0!
#65000
1!
#66000
0!
#67000
1!
#68000
0!
#69000
1!
0A
0@
1?
0>
0=
18
15
14
1(#
0'#
1$#
1!#
0}"
1|"
1{"
1y"
1f"
1e"
0d"
1c"
1b"
1`"
1^"
0\"
0X"
1F"
0D"
1?"
1>"
18"
1&"
0%"
0$"
1#"
0}!
0|!
1{!
0x!
1v!
0c!
1b!
1a!
1]!
0Y!
1X!
0V!
1B!
0@!
0?!
1>!
0<!
0;!
1:!
19!
17!
0$!
0"!
1!!
0~
0{
1z
1w
1u
0b
1[
0Z
0Y
1X
0W
1V
0U
1S
#70000
0!
#71000
1!
#72000
0!
#73000
1!
#74000
0!
#75000
1!
#76000
0!
#77000
1!
1A
1=
0;
1:
05
13
12
1'#
1&#
0%#
0$#
0##
0!#
1~"
1}"
0|"
0y"
1w"
0f"
1d"
0c"
0b"
0^"
1\"
1Z"
0Y"
0W"
0F"
0E"
1D"
0A"
0?"
0<"
0:"
19"
17"
0&"
0!"
0{!
0z!
1x!
1w!
0v!
1u!
1c!
1Y!
0U!
0D!
1?!
09!
07!
15!
1$!
1#!
1"!
1~
0}
0|
1{
0z
1y
0w
0u
1s
1\
1Y
0X
0V
1R
#78000
0!
#79000
1!
#80000
0!
#81000
1!
#82000
0!
#83000
1!
#84000
0!
#85000
1!
1@
1>
0:
19
03
10
0'#
0&#
1%#
1$#
1##
0"#
1!#
1|"
0{"
0z"
1x"
0w"
1v"
1f"
0e"
0d"
1a"
1^"
1["
0V"
1E"
0D"
1C"
1<"
1:"
09"
16"
0""
1}!
1|!
1{!
1z!
1y!
0x!
1v!
0u!
1t!
1d!
0c!
0b!
1_!
1^!
0Y!
0X!
1V!
0T!
1D!
0?!
0>!
1=!
1<!
1;!
17!
05!
14!
0#!
1}
1|
0{
1x
1u
0s
1r
1b
1^
1]
0[
1Z
0Y
1T
0S
1Q
#86000
0!
#87000
1!
#88000
0!
#89000
1!
#90000
0!
#91000
1!
#92000
0!
#93000
1!
0A
1;
17
15
02
1/
0(#
0%#
0##
0!#
0}"
0|"
1{"
1z"
0v"
1u"
1e"
1d"
1b"
1_"
1]"
0\"
0["
0Z"
1Y"
1W"
0U"
1F"
0E"
1D"
0C"
1A"
1@"
1?"
0<"
0;"
07"
15"
1&"
1%"
0#"
1!"
0|!
0{!
1x!
0w!
0v!
1u!
0t!
1s!
1b!
0^!
1[!
1Z!
1Y!
0W!
0V!
1T!
0S!
0B!
1@!
1>!
0;!
0:!
08!
07!
16!
04!
13!
0$!
1#!
0}
0|
0y
1w
0r
1q
0b
0^
0]
0\
0Z
1X
1W
1V
0T
0R
1P
#94000
0!
#95000
1!
#96000
0!
#97000
1!
#98000
0!
#99000
1!
#100000
0!
#101000
1!
0B
1A
0@
0?
1:
09
07
13
00
1.
1&#
1%#
0$#
1##
1"#
1!#
1|"
1w"
1v"
0d"
0b"
0a"
1["
1Z"
0Y"
1U"
0T"
0F"
1E"
0A"
0?"
0>"
1<"
05"
14"
0&"
1$"
0!"
0}!
1|!
1{!
0y!
0x!
1v!
0u!
0s!
1r!
0d!
1c!
1^!
0]!
0Z!
0Y!
1X!
1W!
1S!
0R!
0D!
0C!
0@!
0>!
1;!
1:!
15!
14!
0#!
0!!
1{
1y
0x
0w
1s
1r
1b
1_
1[
1Z
0V
1T
0P
1O
#102000
0!
#103000
1!
#104000
0!
#105000
1!
#106000
0!
#107000
1!
#108000
0!
#109000
1!
1B
0A
1@
1<
19
08
06
04
03
10
0.
1-
1(#
1'#
0&#
0##
0!#
0|"
0u"
1t"
0f"
1c"
1a"
0`"
1\"
0["
0Z"
0W"
0U"
0B"
1="
0<"
0:"
19"
17"
15"
1!"
1}!
0{!
0z!
1x!
1w!
1s!
1d!
0c!
0b!
0a!
1`!
1]!
0\!
0[!
1Z!
1Y!
0X!
0W!
1V!
1U!
0T!
0S!
1@!
1?!
0=!
19!
03!
12!
0"!
1}
1|
0y
1x
1w
0u
0q
1p
0b
0_
1^
1]
0X
0W
1V
1U
1S
1R
1P
#110000
0!
#111000
1!
#112000
0!
#113000
1!
#114000
0!
#115000
1!
#116000
0!
#117000
1!
0B
1A
0=
0<
0;
0:
09
18
16
05
14
13
11
0/
0-
1,
0(#
0%#
1!#
0~"
0{"
0z"
0w"
0v"
0t"
1s"
1f"
0c"
0a"
1`"
0]"
0\"
1["
1Z"
1Y"
1X"
1W"
1T"
0S"
1F"
1B"
0@"
1?"
1;"
06"
04"
13"
1&"
0%"
1#"
0~!
0}!
0w!
0v!
1t!
0s!
0r!
1q!
0d!
1c!
0`!
1\!
1[!
0Z!
1W!
1T!
1R!
0Q!
1C!
1B!
1A!
05!
04!
02!
11!
1#!
1"!
1!!
0~
0|
0{
1z
0x
0w
1u
1t
1q
1b
0a
1`
1_
1\
0[
0Z
1Y
1W
0R
0O
1N
#118000
0!
#119000
1!
#120000
0!
#121000
1!
#122000
0!
#123000
1!
#124000
0!
#125000
1!
0A
1?
1;
1:
19
08
17
06
15
01
00
1/
1-
0'#
1$#
0!#
1~"
1|"
1{"
1z"
1y"
1w"
1u"
0_"
0["
0Y"
0X"
1V"
0T"
0F"
0E"
0B"
1A"
1<"
09"
07"
14"
0$"
1""
0!"
1}!
1{!
1y!
0x!
0t!
1r!
0c!
0_!
0[!
1Z!
0V!
0T!
1S!
0R!
0A!
0@!
1>!
1=!
0<!
17!
06!
14!
13!
1$!
1|
0z
1w
0u
0t
0r
0p
1o
0b
1a
0`
0_
1[
1Z
0Y
1X
0V
0T
0S
1R
1O
#126000
0!
#127000
1!
#128000
0!
#129000
1!
#130000
0!
#131000
1!
#132000
0!
#133000
1!
1B
1A
0>
1=
18
07
05
03
12
0/
1.
0-
0,
1+
1(#
1%#
0"#
1!#
0z"
1v"
0u"
1t"
1d"
1c"
1b"
1_"
0^"
1]"
1\"
1Y"
1X"
1T"
1S"
0R"
1E"
1C"
1B"
0A"
1@"
1>"
0="
0;"
19"
17"
16"
05"
04"
03"
12"
1%"
1$"
0#"
1!"
1~!
0|!
0{!
1z!
1x!
1w!
1t!
1s!
1d!
1b!
1_!
0^!
0]!
0\!
1[!
0Z!
1X!
0U!
1T!
1R!
1Q!
0P!
1D!
0C!
1A!
1@!
0>!
1<!
0;!
0:!
07!
16!
04!
12!
0$!
0#!
0"!
0!!
1~
1y
0w
1u
1t
0s
1r
0q
1p
0a
1`
1_
0]
0\
0Z
1Y
0X
0R
0Q
0P
0N
1M
#134000
0!
#135000
1!
#136000
0!
#137000
1!
#138000
0!
#139000
1!
#140000
0!
#141000
1!
0A
0@
0?
1>
0=
1<
0;
0:
09
17
13
10
1/
1-
0(#
1&#
0$#
1##
1"#
0!#
0~"
1}"
0|"
0v"
0t"
0s"
1r"
0`"
0_"
0]"
0\"
1["
0Y"
0W"
0V"
1U"
0T"
1F"
0E"
0B"
0@"
0>"
1="
0<"
09"
08"
14"
0&"
0%"
1#"
0""
0!"
0~!
1{!
0z!
1v!
0t!
0r!
0q!
1p!
1c!
0b!
1a!
1Z!
1U!
0R!
0A!
0@!
0<!
1:!
09!
18!
17!
14!
03!
02!
01!
10!
1"!
0~
1{
0y
1w
0u
0r
0p
0o
1n
0`
0_
1]
0[
1Z
0W
1V
1T
1R
0O
1N
#142000
0!
#143000
1!
#144000
0!
#145000
1!
#146000
0!
#147000
1!
#148000
0!
#149000
1!
0B
1A
1?
1=
0<
1;
19
08
15
04
11
00
0.
1,
1(#
1'#
1$#
0##
1!#
0y"
1v"
1u"
0d"
0c"
1a"
1`"
1_"
1]"
0["
0Z"
1Y"
1W"
1T"
0S"
0C"
1A"
1@"
0?"
1<"
1:"
19"
18"
06"
04"
13"
1&"
0$"
0#"
1""
1~!
0}!
0{!
0w!
0v!
1u!
1t!
0s!
1r!
0a!
0_!
1]!
1\!
0Y!
0X!
1V!
0U!
0T!
0S!
1@!
0?!
0=!
1<!
1;!
0:!
08!
07!
06!
15!
04!
12!
1!!
1~
1z
1y
0w
0v
1u
0t
1r
1q
1b
0^
1\
0Z
1X
1W
0R
1Q
1O
#150000
0!
#151000
1!
#152000
0!
#153000
1!
#154000
0!
#155000
1!
#156000
0!
#157000
1!
18
07
16
10
0/
1.
0-
0,
0+
1*
0'#
0$#
1##
0"#
0}"
1y"
0w"
0v"
1t"
1d"
1c"
0a"
0`"
1^"
0]"
0Y"
1V"
0T"
0F"
1E"
0D"
0A"
1?"
09"
08"
07"
14"
0&"
1%"
1#"
0""
1!"
0~!
1|!
1z!
0x!
1w!
1v!
0u!
0t!
0r!
1q!
1b!
1_!
1^!
0]!
0\!
0[!
0Z!
1T!
1R!
0Q!
0D!
1A!
0@!
1=!
19!
16!
05!
14!
13!
1#!
0!!
0~
0}
0z
1x
1w
1s
0q
1p
0b
1_
0\
1Z
0W
0V
0U
1S
0O
0N
0M
1L
#158000
0!
#159000
1!
#160000
0!
#161000
1!
#162000
0!
#163000
1!
#164000
0!
#165000
1!
1B
0?
0=
1<
08
06
05
14
02
1/
1-
0(#
0&#
0%#
1~"
1}"
0{"
0x"
1w"
0u"
0t"
1s"
0c"
0b"
1`"
0_"
1]"
1\"
1Z"
0X"
0W"
0U"
0E"
1D"
0@"
0?"
0="
0<"
0:"
18"
17"
15"
0%"
1""
0!"
1}!
0|!
1{!
0y!
1x!
0w!
1u!
1s!
0d!
0c!
1a!
0_!
0^!
1Z!
1Y!
0W!
1U!
0T!
1S!
0R!
1D!
1C!
1>!
0=!
17!
06!
15!
03!
02!
11!
1$!
0#!
1!!
1}
1z
0y
0x
1v
0u
1t
1q
1a
0]
1[
0X
1W
1V
1R
0Q
1O
#166000
0!
#167000
1!
#168000
0!
#169000
1!
#170000
0!
#171000
1!
#172000
0!
#173000
1!
1@
1?
0>
1=
0;
1:
17
16
04
03
0-
1,
1&#
1"#
1x"
0w"
1u"
0f"
0e"
1c"
1b"
1a"
0`"
0^"
1["
1Y"
1X"
1W"
0V"
1U"
1T"
1S"
1R"
0Q"
1F"
1E"
0D"
1C"
1B"
1A"
1?"
1>"
1="
1<"
1:"
05"
04"
03"
02"
11"
1%"
0#"
1!"
0}!
1|!
0z!
1y!
1w!
0v!
0s!
1r!
1d!
1c!
0b!
1_!
1]!
0Y!
0S!
1?!
0>!
1=!
0<!
0;!
07!
13!
0$!
0!!
1~
0}
0{
0z
1y
1x
0v
0t
0q
0p
1o
0a
0_
1\
1X
0W
0V
1U
0S
1Q
1P
#174000
0!
#175000
1!
#176000
0!
#177000
1!
#178000
0!
#179000
1!
#180000
0!
#181000
1!
0B
0A
0=
07
15
13
12
00
0/
1-
1%#
0##
0"#
1{"
1z"
0y"
0x"
1w"
1v"
1f"
0d"
0c"
0a"
1_"
0["
0Z"
0Y"
0X"
1V"
0U"
0A"
1@"
0="
1;"
0:"
07"
15"
1&"
0%"
0""
0!"
0|!
0{!
1z!
0x!
0w!
0u!
1s!
0d!
1b!
0_!
0]!
1[!
0Z!
1Y!
1X!
0U!
1T!
1S!
1R!
1Q!
1P!
0O!
0C!
0A!
1:!
09!
18!
16!
04!
03!
12!
1$!
1#!
0"!
1!!
0~
1v
1u
0r
1q
1b
1a
1`
0Z
0Y
1W
1V
0T
0P
0O
1N
#182000
0!
#183000
1!
#184000
0!
#185000
1!
#186000
0!
#187000
1!
#188000
0!
#189000
1!
1A
0?
1=
0<
09
14
03
02
10
1/
1'#
0&#
1$#
1##
0~"
1|"
0{"
0z"
1x"
0w"
0v"
0u"
1t"
0f"
1e"
0b"
1a"
0_"
1Z"
1Y"
0V"
0F"
0E"
0B"
1A"
0>"
1:"
08"
16"
0&"
1$"
1""
1!"
1~!
1}!
0y!
1v!
1u!
0a!
1]!
1\!
0[!
0Y!
0V!
1U!
0T!
1>!
1;!
0:!
19!
08!
06!
14!
0!!
1}
0|
1{
1z
0y
0w
0v
1t
0s
1r
0b
0a
0`
1]
1Z
0X
0W
0U
1T
0Q
1P
#190000
0!
#191000
1!
#192000
0!
#193000
1!
#194000
0!
#195000
1!
#196000
0!
#197000
1!
1>
0=
1;
0:
18
17
05
04
0'#
1&#
0%#
0$#
1"#
0!#
1~"
0|"
1{"
1y"
1f"
0e"
1d"
1b"
0a"
1`"
1_"
0]"
0\"
1["
0Z"
0Y"
1F"
1E"
1B"
0@"
1>"
0<"
0:"
18"
1&"
0$"
1#"
0""
0!"
0~!
1y!
1w!
0b!
1a!
1_!
0]!
0\!
1[!
1Z!
0X!
1W!
1V!
0U!
1C!
1A!
1@!
0?!
1<!
0;!
09!
18!
17!
0$!
0#!
1!!
1~
0}
0x
1w
0u
0t
1s
1b
1a
0[
0Z
1Y
0V
1S
#198000
0!
#199000
1!
#200000
0!
#201000
1!
#202000
0!
#203000
1!
#204000
0!
