util/sim_results_proc/esn_demo/esn7e_sim_2.vcd
$date
	Wed Aug  3 22:03:32 2016
$end
$version
	ModelSim Version 10.1d
$end
$timescale
	1ps
$end
$scope module esn7e_st_src_tb $end
$var reg 1 ! clk $end
$var reg 1 " reset_n $end
$var wire 1 # data_valid $end
$var wire 1 $ data_out [31] $end
$var wire 1 % data_out [30] $end
$var wire 1 & data_out [29] $end
$var wire 1 ' data_out [28] $end
$var wire 1 ( data_out [27] $end
$var wire 1 ) data_out [26] $end
$var wire 1 * data_out [25] $end
$var wire 1 + data_out [24] $end
$var wire 1 , data_out [23] $end
$var wire 1 - data_out [22] $end
$var wire 1 . data_out [21] $end
$var wire 1 / data_out [20] $end
$var wire 1 0 data_out [19] $end
$var wire 1 1 data_out [18] $end
$var wire 1 2 data_out [17] $end
$var wire 1 3 data_out [16] $end
$var wire 1 4 data_out [15] $end
$var wire 1 5 data_out [14] $end
$var wire 1 6 data_out [13] $end
$var wire 1 7 data_out [12] $end
$var wire 1 8 data_out [11] $end
$var wire 1 9 data_out [10] $end
$var wire 1 : data_out [9] $end
$var wire 1 ; data_out [8] $end
$var wire 1 < data_out [7] $end
$var wire 1 = data_out [6] $end
$var wire 1 > data_out [5] $end
$var wire 1 ? data_out [4] $end
$var wire 1 @ data_out [3] $end
$var wire 1 A data_out [2] $end
$var wire 1 B data_out [1] $end
$var wire 1 C data_out [0] $end
$scope begin INITS $end
$upscope $end
$scope begin CLOCK $end
$upscope $end
$upscope $end
$enddefinitions $end
#0
$dumpvars
0!
1"
0#
xC
xB
xA
x@
x?
x>
x=
0<
x;
x:
x9
x8
x7
x6
x5
04
03
02
01
00
0/
0.
0-
0,
0+
0*
0)
0(
0'
0&
0%
0$
$end
#1000
1!
0C
0B
0A
0@
0?
0>
0=
0;
0:
09
08
07
06
05
#2000
0!
#3000
1!
#4000
0!
#5000
1!
#6000
0!
#7000
1!
xC
xB
xA
x@
x?
x>
x=
x;
x:
x9
x8
x7
x6
x5
#8000
0"
0!
#9000
1!
0C
0B
0A
0@
0?
0>
0=
0;
0:
09
08
07
06
05
#10000
0!
#11000
1!
#12000
0!
#13000
1!
#14000
0!
#15000
1!
xC
xB
xA
x@
x?
x>
x=
x;
x:
x9
x8
x7
x6
x5
#16000
0!
#17000
1!
0C
0B
0A
0@
0?
0>
0=
0;
0:
09
08
07
06
05
#18000
0!
#19000
1!
#20000
0!
#21000
1!
#22000
0!
#23000
1!
#24000
0!
#25000
1!
#26000
0!
#27000
1!
#28000
0!
#29000
1!
#30000
0!
#31000
1!
#32000
0!
#33000
1!
#34000
0!
#35000
1!
#36000
0!
#37000
1!
#38000
0!
#39000
1!
#40000
0!
#41000
1!
#42000
0!
#43000
1!
#44000
0!
#45000
1!
13
12
10
1/
1.
1-
1+
#46000
0!
#47000
1!
#48000
0!
#49000
1!
#50000
0!
#51000
1!
#52000
0!
#53000
1!
00
1*
#54000
0!
#55000
1!
#56000
1"
0!
#57000
1!
#58000
0!
#59000
1!
#60000
0!
#61000
1!
11
0/
0*
1)
#62000
0!
#63000
1!
#64000
0!
#65000
1!
#66000
0!
#67000
1!
#68000
0!
#69000
1!
01
1/
0.
1*
#70000
0!
#71000
1!
#72000
0!
#73000
1!
#74000
0!
#75000
1!
#76000
0!
#77000
1!
03
11
1.
0-
0*
0)
1(
#78000
0!
#79000
1!
#80000
0!
#81000
1!
#82000
0!
#83000
1!
#84000
0!
#85000
1!
10
0/
0.
1*
#86000
0!
#87000
1!
#88000
0!
#89000
1!
#90000
0!
#91000
1!
#92000
0!
#93000
1!
02
01
1/
1-
0+
0*
1)
#94000
0!
#95000
1!
#96000
0!
#97000
1!
#98000
0!
#99000
1!
#100000
0!
#101000
1!
12
00
0-
1*
#102000
0!
#103000
1!
#104000
0!
#105000
1!
#106000
0!
#107000
1!
#108000
0!
#109000
1!
13
10
1.
1+
#110000
0!
#111000
1!
#112000
0!
#113000
1!
#114000
0!
#115000
1!
#116000
0!
#117000
1!
03
02
00
0.
1-
0+
0*
0)
0(
1'
#118000
0!
#119000
1!
#120000
0!
#121000
1!
#122000
0!
#123000
1!
#124000
0!
#125000
1!
13
1+
#126000
0!
#127000
1!
#128000
0!
#129000
1!
#130000
0!
#131000
1!
#132000
0!
#133000
1!
11
10
1.
0-
0+
1*
#134000
0!
#135000
1!
#136000
0!
#137000
1!
#138000
0!
#139000
1!
#140000
0!
#141000
1!
01
00
0.
1+
#142000
0!
#143000
1!
#144000
0!
#145000
1!
#146000
0!
#147000
1!
#148000
0!
#149000
1!
03
12
11
10
0/
1-
#150000
0!
#151000
1!
#152000
0!
#153000
1!
#154000
0!
#155000
1!
#156000
0!
#157000
1!
13
01
00
1/
1.
#158000
0!
#159000
1!
#160000
0!
#161000
1!
#162000
0!
#163000
1!
#164000
0!
#165000
1!
03
02
0/
0.
0-
0+
0*
1)
#166000
0!
#167000
1!
#168000
0!
#169000
1!
#170000
0!
#171000
1!
#172000
0!
#173000
1!
13
12
1/
1.
1-
1+
1*
0)
#174000
0!
#175000
1!
#176000
0!
#177000
1!
#178000
0!
#179000
1!
#180000
0!
#181000
1!
03
11
10
0/
0.
#182000
0!
#183000
1!
#184000
0!
#185000
1!
#186000
0!
#187000
1!
#188000
0!
#189000
1!
13
02
01
00
1/
0-
#190000
0!
#191000
1!
#192000
0!
#193000
1!
#194000
0!
#195000
1!
#196000
0!
#197000
1!
11
10
1.
0+
#198000
0!
#199000
1!
#200000
0!
#201000
1!
#202000
0!
#203000
1!
#204000
0!
#205000
1!
01
00
0.
1-
1+
0*
#206000
0!
#207000
1!
#208000
0!
#209000
1!
#210000
0!
#211000
1!
#212000
0!
#213000
1!
03
0+
#214000
0!
#215000
1!
#216000
0!
#217000
1!
#218000
0!
#219000
1!
#220000
0!
#221000
1!
13
12
10
1.
0-
1+
1*
1)
1(
0'
#222000
0!
#223000
1!
#224000
0!
#225000
1!
#226000
0!
#227000
1!
#228000
0!
#229000
1!
03
00
0.
0+
#230000
0!
#231000
1!
#232000
0!
#233000
1!
#234000
0!
#235000
1!
#236000
0!
#237000
1!
02
10
1-
0*
#238000
0!
#239000
1!
#240000
0!
#241000
1!
#242000
0!
#243000
1!
#244000
0!
#245000
1!
12
11
0/
0-
1+
1*
0)
#246000
0!
#247000
1!
#248000
0!
#249000
1!
#250000
0!
#251000
1!
#252000
0!
#253000
1!
00
1/
1.
0*
#254000
0!
#255000
1!
#256000
0!
#257000
1!
#258000
0!
#259000
1!
#260000
0!
#261000
1!
13
01
0.
1-
1*
1)
0(
#262000
0!
#263000
1!
#264000
0!
#265000
1!
1#
#266000
0!
#267000
1!
0#
#268000
0!
#269000
1!
11
0/
1.
0*
#270000
0!
#271000
1!
#272000
0!
#273000
1!
1B
1A
1>
1#
#274000
0!
#275000
1!
1C
0B
1@
0>
0#
#276000
0!
#277000
1!
01
1/
1*
0)
#278000
0!
#279000
1!
0C
0A
0@
#280000
0!
#281000
1!
#282000
0!
#283000
1!
#284000
0!
#285000
1!
10
0*
#286000
0!
#287000
1!
#288000
0!
#289000
1!
#290000
0!
#291000
1!
1#
#292000
0!
#293000
1!
03
02
00
0/
0.
0-
0+
0#
#294000
0!
#295000
1!
#296000
0!
#297000
1!
#298000
0!
#299000
1!
1#
#300000
0!
#301000
1!
13
11
1*
1)
1(
1'
1&
1%
0#
#302000
0!
#303000
1!
#304000
0!
#305000
1!
#306000
0!
#307000
1!
1C
1B
1A
1@
1?
1>
1=
1;
1:
19
18
17
16
15
1#
#308000
0!
#309000
1!
03
10
0*
0#
#310000
0!
#311000
1!
#312000
0!
#313000
1!
#314000
0!
#315000
1!
1#
#316000
0!
#317000
1!
01
1/
1*
0)
0#
#318000
0!
#319000
1!
#320000
0!
#321000
1!
#322000
0!
#323000
1!
0C
1#
#324000
0!
#325000
1!
11
0/
1.
0*
0#
#326000
0!
#327000
1!
#328000
0!
#329000
1!
#330000
0!
#331000
1!
0B
0A
1#
#332000
0!
#333000
1!
13
01
0.
1-
1*
1)
0(
0#
#334000
0!
#335000
1!
#336000
0!
#337000
1!
#338000
0!
#339000
1!
1B
0@
0?
1#
#340000
0!
#341000
1!
00
1/
1.
0*
0#
#342000
0!
#343000
1!
#344000
0!
#345000
1!
#346000
0!
#347000
1!
1@
0=
1#
#348000
0!
#349000
1!
03
10
0/
0-
1+
1*
0)
0#
#350000
0!
#351000
1!
#352000
0!
#353000
1!
#354000
0!
#355000
1!
1C
1A
0@
1?
0;
1#
#356000
0!
#357000
1!
13
11
1-
0*
0#
#358000
0!
#359000
1!
#360000
0!
#361000
1!
#362000
0!
#363000
1!
0C
0B
0A
1=
0:
1#
#364000
0!
#365000
1!
00
0.
0+
0#
#366000
0!
#367000
1!
#368000
0!
#369000
1!
#370000
0!
#371000
1!
1C
1A
1@
0=
1:
09
1#
#372000
0!
#373000
1!
12
10
1.
0-
1+
1*
1)
1(
0'
0#
#374000
0!
#375000
1!
#376000
0!
#377000
1!
#378000
0!
#379000
1!
0C
1B
0A
0@
0>
1;
19
08
1#
#380000
0!
#381000
1!
03
0+
0#
#382000
0!
#383000
1!
#384000
0!
#385000
1!
#386000
0!
#387000
1!
1C
0B
1>
1=
0;
09
1#
#388000
0!
#389000
1!
01
00
0.
1-
1+
0*
0#
#390000
0!
#391000
1!
#392000
0!
#393000
1!
#394000
0!
#395000
1!
1B
1@
0?
1;
0:
19
18
07
1#
#396000
0!
#397000
1!
11
10
1.
0+
0#
#398000
0!
#399000
1!
#400000
0!
#401000
1!
#402000
0!
#403000
1!
0@
0=
0;
09
1#
#404000
0!
#405000
1!
13
02
01
00
1/
0-
0#
#406000
0!
#407000
1!
#408000
0!
#409000
1!
#410000
0!
#411000
1!
0B
1A
0>
1=
1:
08
1#
#412000
0!
#413000
1!
03
11
10
0/
0.
0#
#414000
0!
#415000
1!
#416000
0!
#417000
1!
#418000
0!
#419000
1!
0C
0=
1;
0:
19
18
17
06
1#
#420000
0!
#421000
1!
01
00
0#
#422000
0!
#423000
1!
#424000
0!
#425000
1!
#426000
0!
#427000
1!
1C
1B
0A
1?
0;
09
1#
#428000
0!
#429000
1!
11
10
0#
#430000
0!
#431000
1!
#432000
0!
#433000
1!
#434000
0!
#435000
1!
0C
1A
1@
19
08
1#
#436000
0!
#437000
1!
13
01
00
1/
1.
0#
#438000
0!
#439000
1!
#440000
0!
#441000
1!
#442000
0!
#443000
1!
0B
0@
0?
1=
1;
09
1#
#444000
0!
#445000
1!
03
12
11
10
0/
1-
0#
#446000
0!
#447000
1!
#448000
0!
#449000
1!
#450000
0!
#451000
1!
0A
1@
1?
0=
0;
1#
#452000
0!
#453000
1!
01
00
0.
1+
0#
#454000
0!
#455000
1!
#456000
0!
#457000
1!
#458000
0!
#459000
1!
1B
1A
1#
#460000
0!
#461000
1!
11
10
1.
0-
0+
1*
0#
#462000
0!
#463000
1!
#464000
0!
#465000
1!
#466000
0!
#467000
1!
0A
0?
1=
1;
1#
#468000
0!
#469000
1!
13
1+
0#
#470000
0!
#471000
1!
#472000
0!
#473000
1!
#474000
0!
#475000
1!
0B
0=
0;
19
1#
#476000
0!
#477000
1!
02
00
0.
1-
0+
0*
0)
0(
1'
0#
#478000
0!
#479000
1!
#480000
0!
#481000
1!
#482000
0!
#483000
1!
1C
1B
1?
1>
1;
1:
1#
#484000
0!
#485000
1!
10
1.
1+
0#
#486000
0!
#487000
1!
#488000
0!
#489000
1!
#490000
0!
#491000
1!
0C
0@
0?
0>
1=
09
18
1#
#492000
0!
#493000
1!
03
01
0-
1*
0#
#494000
0!
#495000
1!
#496000
0!
#497000
1!
#498000
0!
#499000
1!
1C
1A
1@
1?
1>
19
1#
#500000
0!
#501000
1!
13
00
1/
1-
0+
0*
1)
0#
#502000
0!
#503000
1!
#504000
0!
#505000
1!
#506000
0!
#507000
1!
0B
0@
0>
0;
0:
08
07
16
1#
#508000
0!
#509000
1!
10
0/
0.
1*
0#
#510000
0!
#511000
1!
#512000
0!
#513000
1!
#514000
0!
#515000
1!
0A
1>
0=
1;
09
18
1#
#516000
0!
#517000
1!
03
11
1.
0-
0*
0)
1(
0#
#518000
0!
#519000
1!
#520000
0!
#521000
1!
#522000
0!
#523000
1!
1A
0?
0>
0;
1:
19
1#
#524000
0!
#525000
1!
01
1/
0.
1*
0#
#526000
0!
#527000
1!
#528000
0!
#529000
1!
#530000
0!
#531000
1!
0C
0A
1?
1=
09
08
17
1#
#532000
0!
#533000
1!
11
0/
0*
1)
0#
#534000
0!
#535000
1!
#536000
0!
#537000
1!
#538000
0!
#539000
1!
1C
1A
0=
1;
19
1#
#540000
0!
#541000
1!
13
00
1*
0#
#542000
0!
#543000
1!
#544000
0!
#545000
1!
#546000
0!
#547000
1!
0A
1@
1=
09
18
1#
#548000
0!
#549000
1!
03
01
0*
0)
0(
0'
0&
0%
0#
#550000
0!
#551000
1!
#552000
0!
#553000
1!
#554000
0!
#555000
1!
0C
0@
0?
1>
0=
0;
0:
08
07
06
05
1#
#556000
0!
#557000
1!
13
12
10
1/
1.
1-
1+
0#
#558000
0!
#559000
1!
#560000
0!
#561000
1!
#562000
0!
#563000
1!
1B
1=
19
1#
#564000
0!
#565000
1!
00
1*
0#
#566000
0!
#567000
1!
#568000
0!
#569000
1!
#570000
0!
#571000
1!
1A
1@
0>
0=
1;
09
18
1#
#572000
0!
#573000
1!
11
0/
0*
1)
0#
#574000
0!
#575000
1!
#576000
0!
#577000
1!
#578000
0!
#579000
1!
1C
0A
19
1#
#580000
0!
#581000
1!
01
1/
0.
1*
0#
#582000
0!
#583000
1!
#584000
0!
#585000
1!
#586000
0!
#587000
1!
1A
1?
1>
0;
09
08
17
1#
#588000
0!
#589000
1!
03
11
1.
0-
0*
0)
1(
0#
#590000
0!
#591000
1!
#592000
0!
#593000
1!
#594000
0!
#595000
1!
0C
0>
1;
1:
1#
#596000
0!
#597000
1!
10
0/
0.
1*
0#
#598000
0!
#599000
1!
#600000
0!
#601000
1!
#602000
0!
#603000
1!
0B
0?
1>
0:
19
1#
#604000
0!
#605000
1!
02
01
1/
1-
0+
0*
1)
0#
#606000
0!
#607000
1!
#608000
0!
#609000
1!
#610000
0!
#611000
1!
1C
1?
1=
0;
1:
1#
#612000
0!
#613000
1!
12
00
0-
1*
0#
#614000
0!
#615000
1!
#616000
0!
#617000
1!
#618000
0!
#619000
1!
1B
0A
0@
0=
0:
09
18
1#
#620000
0!
#621000
1!
13
10
1.
1+
0#
#622000
0!
#623000
1!
#624000
0!
#625000
1!
#626000
0!
#627000
1!
0B
1A
1=
1;
1#
#628000
0!
#629000
1!
03
02
00
0.
1-
0+
0*
0)
0(
1'
0#
#630000
0!
#631000
1!
#632000
0!
#633000
1!
#634000
0!
#635000
1!
0C
1B
0?
1:
1#
#636000
0!
#637000
1!
13
1+
0#
#638000
0!
#639000
1!
#640000
0!
#641000
1!
#642000
0!
#643000
1!
1C
0B
1@
1?
0>
0=
0;
19
1#
#644000
0!
#645000
1!
11
10
1.
0-
0+
1*
0#
#646000
0!
#647000
1!
#648000
0!
#649000
1!
#650000
0!
#651000
1!
0C
0A
0@
0?
1>
1;
0:
09
08
07
16
1#
#652000
0!
#653000
1!
01
00
0.
1+
0#
#654000
0!
#655000
1!
#656000
0!
#657000
1!
#658000
0!
#659000
1!
1=
0;
19
1#
#660000
0!
#661000
1!
03
12
11
10
0/
1-
0#
#662000
0!
#663000
1!
#664000
0!
#665000
1!
#666000
0!
#667000
1!
1C
0>
09
18
1#
#668000
0!
#669000
1!
13
01
00
1/
1.
0#
#670000
0!
#671000
1!
#672000
0!
#673000
1!
#674000
0!
#675000
1!
0C
1@
1?
0=
19
1#
#676000
0!
#677000
1!
03
02
0/
0.
0-
0+
0*
1)
0#
#678000
0!
#679000
1!
#680000
0!
#681000
1!
#682000
0!
#683000
1!
1B
1>
1;
1:
1#
#684000
0!
#685000
1!
13
12
1/
1.
1-
1+
1*
0)
0#
#686000
0!
#687000
1!
#688000
0!
#689000
1!
#690000
0!
#691000
1!
1A
1=
0:
09
08
17
1#
#692000
0!
#693000
1!
03
11
10
0/
0.
0#
#694000
0!
#695000
1!
#696000
0!
#697000
1!
#698000
0!
#699000
1!
1C
0B
0A
0@
0?
0>
1:
1#
#700000
0!
#701000
1!
13
02
01
00
1/
0-
0#
#702000
0!
#703000
1!
#704000
0!
#705000
1!
#706000
0!
#707000
1!
0C
1?
1>
1#
#708000
0!
#709000
1!
11
10
1.
0+
0#
#710000
0!
#711000
1!
#712000
0!
#713000
1!
#714000
0!
#715000
1!
1C
1A
0?
0>
0=
1#
#716000
0!
#717000
1!
01
00
0.
1-
1+
0*
0#
#718000
0!
#719000
1!
#720000
0!
#721000
1!
#722000
0!
#723000
1!
0:
1#
#724000
0!
#725000
1!
03
0+
0#
#726000
0!
#727000
1!
#728000
0!
#729000
1!
#730000
0!
#731000
1!
1B
0A
0;
1:
19
18
07
1#
#732000
0!
#733000
1!
13
12
10
1.
0-
1+
1*
1)
1(
0'
0#
#734000
0!
#735000
1!
#736000
0!
#737000
1!
#738000
0!
#739000
1!
0B
1@
1?
09
1#
#740000
0!
#741000
1!
03
00
0.
0+
0#
#742000
0!
#743000
1!
#744000
0!
#745000
1!
#746000
0!
#747000
1!
0C
1A
0@
0?
1>
1=
1;
0:
19
08
1#
#748000
0!
#749000
1!
02
10
1-
0*
0#
#750000
0!
#751000
1!
#752000
0!
#753000
1!
#754000
0!
#755000
1!
1C
0A
0>
0=
09
1#
#756000
0!
#757000
1!
12
11
0/
0-
1+
1*
0)
0#
#758000
0!
#759000
1!
#760000
0!
#761000
1!
#762000
0!
#763000
1!
0C
1A
1@
0;
19
18
17
06
1#
#764000
0!
#765000
1!
00
1/
1.
0*
0#
#766000
0!
#767000
1!
#768000
0!
#769000
1!
#770000
0!
#771000
1!
1C
0@
1?
1;
1:
08
1#
#772000
0!
#773000
1!
13
01
0.
1-
1*
1)
0(
0#
#774000
0!
#775000
1!
#776000
0!
#777000
1!
#778000
0!
#779000
1!
0C
1B
0A
1@
0?
1>
0;
09
1#
#780000
0!
#781000
1!
11
0/
1.
0*
0#
#782000
0!
#783000
1!
#784000
0!
#785000
1!
#786000
0!
#787000
1!
0B
1A
0>
1=
1;
0:
19
18
07
1#
#788000
0!
#789000
1!
01
1/
1*
0)
0#
#790000
0!
#791000
1!
#792000
0!
#793000
1!
#794000
0!
#795000
1!
0A
1?
1>
0;
09
1#
#796000
0!
#797000
1!
10
0*
0#
#798000
0!
#799000
1!
#800000
0!
#801000
1!
#802000
0!
#803000
1!
1C
1B
1A
0@
0?
0=
19
08
1#
#804000
0!
#805000
1!
03
02
00
0/
0.
0-
0+
0#
#806000
0!
#807000
1!
#808000
0!
#809000
1!
#810000
0!
#811000
1!
0C
1?
0>
1=
1;
1:
18
17
16
15
1#
#812000
0!
#813000
1!
13
11
1*
1)
1(
1'
1&
1%
0#
#814000
0!
#815000
1!
#816000
0!
#817000
1!
#818000
0!
#819000
1!
1C
0A
1@
0?
0=
09
1#
#820000
0!
#821000
1!
03
10
0*
0#
#822000
0!
#823000
1!
#824000
0!
#825000
1!
#826000
0!
#827000
1!
0B
1A
0@
1?
1=
0;
19
08
1#
#828000
0!
#829000
1!
01
1/
1*
0)
0#
#830000
0!
#831000
1!
#832000
0!
#833000
1!
#834000
0!
#835000
1!
1@
0?
09
1#
#836000
0!
#837000
1!
11
0/
1.
0*
0#
#838000
0!
#839000
1!
#840000
0!
#841000
1!
#842000
0!
#843000
1!
0=
1;
19
18
07
1#
#844000
0!
#845000
1!
13
01
0.
1-
1*
1)
0(
0#
#846000
0!
#847000
1!
#848000
0!
#849000
1!
#850000
0!
#851000
1!
0A
0@
1>
0;
0:
1#
#852000
0!
#853000
1!
00
1/
1.
0*
0#
#854000
0!
#855000
1!
#856000
0!
#857000
1!
#858000
0!
#859000
1!
1B
1A
0>
1:
09
1#
#860000
0!
#861000
1!
03
10
0/
0-
1+
1*
0)
0#
#862000
0!
#863000
1!
#864000
0!
#865000
1!
#866000
0!
#867000
1!
0B
1@
1>
0:
1#
#868000
0!
#869000
1!
13
11
1-
0*
0#
#870000
0!
#871000
1!
#872000
0!
#873000
1!
#874000
0!
#875000
1!
0C
0A
0@
1?
1=
1:
19
08
1#
#876000
0!
#877000
1!
00
0.
0+
0#
#878000
0!
#879000
1!
#880000
0!
#881000
1!
#882000
0!
#883000
1!
1C
1B
1@
0?
0=
1;
0:
1#
#884000
0!
#885000
1!
12
10
1.
0-
1+
1*
1)
1(
0'
0#
#886000
0!
#887000
1!
#888000
0!
#889000
1!
#890000
0!
#891000
1!
0C
1?
1:
09
1#
#892000
0!
#893000
1!
03
0+
0#
#894000
0!
#895000
1!
#896000
0!
#897000
1!
#898000
0!
#899000
1!
1C
1A
0@
0?
0>
0:
1#
#900000
0!
#901000
1!
01
00
0.
1-
1+
0*
0#
#902000
0!
#903000
1!
#904000
0!
#905000
1!
#906000
0!
#907000
1!
0C
0A
1@
0;
1:
19
18
17
06
1#
#908000
0!
#909000
1!
11
10
1.
0+
0#
#910000
0!
#911000
1!
#912000
0!
#913000
1!
#914000
0!
#915000
1!
0@
1?
1=
09
1#
#916000
0!
#917000
1!
13
02
01
00
1/
0-
0#
#918000
0!
#919000
1!
#920000
0!
#921000
1!
#922000
0!
#923000
1!
1C
1@
1>
19
08
1#
#924000
0!
#925000
1!
03
11
10
0/
0.
0#
#926000
0!
#927000
1!
#928000
0!
#929000
1!
#930000
0!
#931000
1!
0B
1A
0?
0=
1;
09
1#
#932000
0!
#933000
1!
01
00
0#
#934000
0!
#935000
1!
#936000
0!
#937000
1!
#938000
0!
#939000
1!
0C
0@
1?
0>
0;
0:
1#
#940000
0!
#941000
1!
11
10
0#
#942000
0!
#943000
1!
#944000
0!
#945000
1!
#946000
0!
#947000
1!
1B
0A
1@
1=
1;
19
18
07
1#
#948000
0!
#949000
1!
13
01
00
1/
1.
0#
#950000
0!
#951000
1!
#952000
0!
#953000
1!
#954000
0!
#955000
1!
0B
0@
0?
1>
0=
0;
1#
#956000
0!
#957000
1!
03
12
11
10
0/
1-
0#
#958000
0!
#959000
1!
#960000
0!
#961000
1!
#962000
0!
#963000
1!
1C
1@
1?
1=
1;
1:
09
1#
#964000
0!
#965000
1!
01
00
0.
1+
0#
#966000
0!
#967000
1!
#968000
0!
#969000
1!
#970000
0!
#971000
1!
0C
1A
0?
0;
0:
19
1#
#972000
0!
#973000
1!
11
10
1.
0-
0+
1*
0#
#974000
0!
#975000
1!
#976000
0!
#977000
1!
#978000
0!
#979000
1!
0@
1?
1:
1#
#980000
0!
#981000
1!
13
1+
0#
#982000
0!
#983000
1!
#984000
0!
#985000
1!
#986000
0!
#987000
1!
1C
1@
1;
0:
09
08
17
1#
#988000
0!
#989000
1!
02
00
0.
1-
0+
0*
0)
0(
1'
0#
#990000
0!
#991000
1!
#992000
0!
#993000
1!
#994000
0!
#995000
1!
0?
19
1#
#996000
0!
#997000
1!
10
1.
1+
0#
#998000
0!
#999000
1!
#1000000
0!
#1001000
1!
#1002000
0!
#1003000
1!
0C
0A
0=
0;
1:
09
18
1#
#1004000
0!
#1005000
1!
03
01
0-
1*
0#
#1006000
0!
#1007000
1!
#1008000
0!
#1009000
1!
#1010000
0!
#1011000
1!
1C
1B
1A
0>
1;
19
1#
#1012000
0!
#1013000
1!
13
00
1/
1-
0+
0*
1)
0#
#1014000
0!
#1015000
1!
#1016000
0!
#1017000
1!
#1018000
0!
#1019000
1!
0C
0A
0;
0:
08
07
16
1#
#1020000
0!
#1021000
1!
10
0/
0.
1*
0#
#1022000
0!
#1023000
1!
#1024000
0!
#1025000
1!
#1026000
0!
#1027000
1!
1C
0@
1;
09
18
1#
#1028000
0!
#1029000
1!
03
11
1.
0-
0*
0)
1(
0#
#1030000
0!
#1031000
1!
#1032000
0!
#1033000
1!
#1034000
0!
#1035000
1!
0C
0B
1?
1>
1=
19
1#
#1036000
0!
#1037000
1!
01
1/
0.
1*
0#
#1038000
0!
#1039000
1!
#1040000
0!
#1041000
1!
#1042000
0!
#1043000
1!
1C
1A
1@
0?
0>
0;
1:
09
08
17
1#
#1044000
0!
#1045000
1!
11
0/
0*
1)
0#
#1046000
0!
#1047000
1!
#1048000
0!
#1049000
1!
#1050000
0!
#1051000
1!
0C
1B
1?
0=
1;
19
1#
#1052000
0!
#1053000
1!
13
00
1*
0#
#1054000
0!
#1055000
1!
#1056000
0!
#1057000
1!
#1058000
0!
#1059000
1!
1C
0B
0A
0?
1>
1=
09
18
1#
#1060000
0!
#1061000
1!
03
01
0*
0)
0(
0'
0&
0%
0#
#1062000
0!
#1063000
1!
#1064000
0!
#1065000
1!
#1066000
0!
#1067000
1!
0C
0@
1?
0=
0;
0:
08
07
06
05
1#
#1068000
0!
#1069000
1!
13
12
10
1/
1.
1-
1+
0#
#1070000
0!
#1071000
1!
#1072000
0!
#1073000
1!
#1074000
0!
#1075000
1!
1B
1=
19
1#
#1076000
0!
#1077000
1!
00
1*
0#
#1078000
0!
#1079000
1!
#1080000
0!
#1081000
1!
#1082000
0!
#1083000
1!
0B
0?
0=
1;
09
18
1#
#1084000
0!
#1085000
1!
11
0/
0*
1)
0#
#1086000
0!
#1087000
1!
#1088000
0!
#1089000
1!
#1090000
0!
#1091000
1!
1B
19
1#
#1092000
0!
#1093000
1!
01
1/
0.
1*
0#
#1094000
0!
#1095000
1!
#1096000
0!
#1097000
1!
#1098000
0!
#1099000
1!
1C
0B
1=
0;
09
08
17
1#
#1100000
0!
#1101000
1!
03
11
1.
0-
0*
0)
1(
0#
#1102000
0!
#1103000
1!
#1104000
0!
#1105000
1!
#1106000
0!
#1107000
1!
1B
1A
1@
0>
1;
1:
1#
#1108000
0!
#1109000
1!
10
0/
0.
1*
0#
#1110000
0!
#1111000
1!
#1112000
0!
#1113000
1!
#1114000
0!
#1115000
1!
0C
1>
0:
19
1#
#1116000
0!
#1117000
1!
02
01
1/
1-
0+
0*
1)
0#
#1118000
0!
#1119000
1!
#1120000
0!
#1121000
1!
#1122000
0!
#1123000
1!
1C
0>
1:
1#
#1124000
0!
#1125000
1!
12
00
0-
1*
0#
#1126000
0!
#1127000
1!
#1128000
0!
#1129000
1!
#1130000
0!
#1131000
1!
0A
0@
1?
0=
0:
09
18
1#
#1132000
0!
#1133000
1!
13
10
1.
1+
0#
#1134000
0!
#1135000
1!
#1136000
0!
#1137000
1!
#1138000
0!
#1139000
1!
1A
1@
1=
0;
1:
1#
#1140000
0!
#1141000
1!
03
02
00
0.
1-
0+
0*
0)
0(
1'
0#
#1142000
0!
#1143000
1!
#1144000
0!
#1145000
1!
#1146000
0!
#1147000
1!
0B
0@
0:
19
1#
#1148000
0!
#1149000
1!
13
1+
0#
#1150000
0!
#1151000
1!
#1152000
0!
#1153000
1!
#1154000
0!
#1155000
1!
1@
0?
0=
1;
1:
1#
#1156000
0!
#1157000
1!
11
10
1.
0-
0+
1*
0#
#1158000
0!
#1159000
1!
#1160000
0!
#1161000
1!
#1162000
0!
#1163000
1!
0C
0;
09
08
07
16
1#
#1164000
0!
#1165000
1!
01
00
0.
1+
0#
#1166000
0!
#1167000
1!
#1168000
0!
#1169000
1!
#1170000
0!
#1171000
1!
1C
0@
1=
1;
0:
19
1#
#1172000
0!
#1173000
1!
03
12
11
10
0/
1-
0#
#1174000
0!
#1175000
1!
#1176000
0!
#1177000
1!
#1178000
0!
#1179000
1!
1B
0A
1@
1?
0=
09
18
1#
#1180000
0!
#1181000
1!
13
01
00
1/
1.
0#
#1182000
0!
#1183000
1!
#1184000
0!
#1185000
1!
#1186000
0!
#1187000
1!
1A
0@
0?
1>
1=
0;
19
1#
#1188000
0!
#1189000
1!
03
02
0/
0.
0-
0+
0*
1)
0#
#1190000
0!
#1191000
1!
#1192000
0!
#1193000
1!
#1194000
0!
#1195000
1!
0C
0B
1@
1?
1;
1:
1#
#1196000
0!
#1197000
1!
13
12
1/
1.
1-
1+
1*
0)
0#
#1198000
0!
#1199000
1!
#1200000
0!
#1201000
1!
#1202000
0!
#1203000
1!
1B
0A
0@
0=
0;
09
08
17
1#
#1204000
0!
#1205000
1!
03
11
10
0/
0.
0#
#1206000
0!
#1207000
1!
#1208000
0!
#1209000
1!
#1210000
0!
#1211000
1!
0B
1@
0?
1=
1;
1#
#1212000
0!
#1213000
1!
13
02
01
00
1/
0-
0#
#1214000
0!
#1215000
1!
#1216000
0!
#1217000
1!
#1218000
0!
#1219000
1!
1C
1B
0>
0=
0;
0:
19
1#
#1220000
0!
#1221000
1!
11
10
1.
0+
0#
#1222000
0!
#1223000
1!
#1224000
0!
#1225000
1!
#1226000
0!
#1227000
1!
0@
1?
1;
1:
09
1#
#1228000
0!
#1229000
1!
01
00
0.
1-
1+
0*
0#
#1230000
0!
#1231000
1!
#1232000
0!
#1233000
1!
#1234000
0!
#1235000
1!
1A
0?
0:
1#
#1236000
0!
#1237000
1!
03
0+
0#
#1238000
0!
#1239000
1!
#1240000
0!
#1241000
1!
#1242000
0!
#1243000
1!
0B
0A
1@
1?
1>
1=
19
18
07
1#
#1244000
0!
#1245000
1!
13
12
10
1.
0-
1+
1*
1)
1(
0'
0#
#1246000
0!
#1247000
1!
#1248000
0!
#1249000
1!
#1250000
0!
#1251000
1!
0C
1A
0@
0?
0>
0=
0;
1:
09
1#
#1252000
0!
#1253000
1!
03
00
0.
0+
0#
#1254000
0!
#1255000
1!
#1256000
0!
#1257000
1!
#1258000
0!
#1259000
1!
1C
1=
1;
0:
19
08
1#
#1260000
0!
#1261000
1!
02
10
1-
0*
0#
#1262000
0!
#1263000
1!
#1264000
0!
#1265000
1!
#1266000
0!
#1267000
1!
0A
1@
1?
0;
09
1#
#1268000
0!
